gabrielbertolini - 3-Gráficos com ggplot2
…
# Criar banco de dados

PALEOCURRENTS<-tibble(direction=c(rnorm(1:n_wr[1],mean=ripples,sd=ripples_SD),
                                  rnorm(1:n_wr[2],mean=dunas,sd=dunas_SD)),
                      facies=c(rep("WINDRIPPLES",times=n_wr[1]),
                               rep("DUNES",times=n_wr[2])))

PALEOCURRENTS

# A tibble: 900 × 2
   direction facies     
       <dbl> <chr>      
 1      47.2 WINDRIPPLES
 2      40.8 WINDRIPPLES
 3      57.7 WINDRIPPLES
 4      57.2 WINDRIPPLES
 5      42.0 WINDRIPPLES
 6      20.9 WINDRIPPLES
 7      63.9 WINDRIPPLES
 8      40.6 WINDRIPPLES
 9      69.8 WINDRIPPLES
10      31.4 WINDRIPPLES
# ℹ 890 more rows
…
