gabrielbertolini - Aula 2 - Introdução ao tidyverse
…
BD %>%  # reparar o uso do comando pype esse codigo significa select(BD,SiO2:Cd)- as funções
  select(SiO2:Cd) # selecionar elementos quimicos - SiO2 até Cd

# A tibble: 3,050 × 59
    SiO2  TiO2 Al2O3  FeOt    MnO   MgO   CaO   K2O  Na2O P2O5        H2O  H2Ot
   <dbl> <dbl> <dbl> <dbl>  <dbl> <dbl> <dbl> <dbl> <dbl> <chr>     <dbl> <dbl>
 1  65.4 0.827  17.1  4.91 0.0771 1.80   1.81  5.13  2.66 0.2880228    NA    NA
 2  69.6 0.709  14.9  4.19 0.0540 1.63   1.44  5.02  2.22 0.22098      NA    NA
 3  70.6 0.571  15.3  2.82 0.0532 1.33   1.20  5.60  2.33 0.197212     NA    NA
 4  70.6 0.478  15.7  2.51 0.0407 0.978  1.31  5.28  2.88 0.2001758    NA    NA
 5  70.7 0.532  15.3  2.54 0.0609 1.21   1.24  5.57  2.64 0.2268257    NA    NA
 6  71.0 0.484  15.5  2.47 0.0396 1.01   1.48  5.33  2.56 0.1863152    NA    NA
 7  72.4 0.470  14.3  2.68 0.0422 1.03   1.09  5.05  2.75 0.2026448    NA    NA
 8  73.2 0.428  14.4  2.40 0.0605 0.769  1.06  5.04  2.46 0.2184707    NA    NA
 9  73.2 0.363  14.4  2.25 0.0211 0.678  1.10  5.05  2.86 0.1591542    NA    NA
10  74.8 0.530  13.5  2.73 0.0472 1.18   1.43  3.28  2.30 0.1812674    NA    NA
# ℹ 3,040 more rows
# ℹ 47 more variables: H2O.MINUS <dbl>, LOI <chr>, Li <dbl>, Be <dbl>, B <dbl>,
#   Sc <dbl>, V <chr>, Cr <dbl>, Ni <dbl>, Cu <dbl>, Zn <dbl>, Rb <dbl>,
#   Sr <dbl>, Y <dbl>, Zr <dbl>, Nb <dbl>, Cs <dbl>, Ba <dbl>, La <chr>,
#   Ce <dbl>, Pr <chr>, Nd <chr>, Sm <chr>, Eu <chr>, Gd <chr>, Tb <dbl>,
#   Dy <dbl>, Ho <dbl>, Er <dbl>, Tm <dbl>, Yb <dbl>, Lu <dbl>, Hf <dbl>,
#   Ta <dbl>, Pb <dbl>, Th <chr>, U <dbl>, Co <dbl>, Mo <chr>, W <dbl>, …

BD %>% 
  select(X,Tectonic_setting,Latitude,Longitude,Albite:Corundum) %>% # selecionar colunas X, Tectonic_setting, Latitude,Longitude e minerais (Albite:Corundum)
  select(-X) # usar - pra retirar a variavel

# A tibble: 3,050 × 11
   Tectonic_setting Latitude Longitude Albite Anorthite Quartz Apatite Ilmenite
   <chr>               <dbl>     <dbl>  <dbl>     <dbl>  <dbl>   <dbl>    <dbl>
 1 OROGENIC BELT          NA        NA   22.5      7.11   27.2   0.680    0.786
 2 OROGENIC BELT          NA        NA   18.8      5.68   35.1   0.522    0.673
 3 OROGENIC BELT          NA        NA   19.7      4.68   33.6   0.465    0.542
 4 OROGENIC BELT          NA        NA   24.4      5.19   31.4   0.472    0.454
 5 OROGENIC BELT          NA        NA   22.4      4.65   32.0   0.535    0.506
 6 OROGENIC BELT          NA        NA   21.7      6.11   33.0   0.440    0.460
 7 OROGENIC BELT          NA        NA   23.3      4.07   35.3   0.478    0.446
 8 OROGENIC BELT          NA        NA   20.8      3.84   37.9   0.516    0.407
 9 OROGENIC BELT          NA        NA   24.2      4.39   35.3   0.376    0.344
10 OROGENIC BELT          NA        NA   19.5      5.91   46.2   0.428    0.504
# ℹ 3,040 more rows
# ℹ 3 more variables: Biotite <dbl>, Amphibole <dbl>, Corundum <dbl>
…
BD %>% 
  filter(Tectonic_setting %in% c("OROGENIC BELT",
                                 "INTRAPLATE VOLCANICS",
                                 "ARCHAEAN CRATONS",
                                 "CONVERGENT MARGIN")) # filtrar pelos strings usando %in% e c()

# A tibble: 2,642 × 117
     X.1 X     Tectonic_setting Location_notes     Pluton Colour Symbol Size_rel
   <int> <chr> <chr>            <chr>              <chr>  <chr>   <int>    <dbl>
 1     1 CR03  OROGENIC BELT    ////////Peninsula… Cape … brown4     16      1.6
 2     2 BB202 OROGENIC BELT    ////////Peninsula… Cape … brown4     16      1.6
 3     3 CB02  OROGENIC BELT    ////////Peninsula… Cape … brown4     16      1.6
 4     4 HB02  OROGENIC BELT    ////////Peninsula… Cape … brown4     16      1.6
 5     5 CR01  OROGENIC BELT    ////////Peninsula… Cape … brown4     16      1.6
 6     6 LL01  OROGENIC BELT    ////////Peninsula… Cape … brown4     16      1.6
 7     7 MP21  OROGENIC BELT    ////////Peninsula… Cape … brown4     16      1.6
 8     8 OK07  OROGENIC BELT    ////////Peninsula… Cape … brown4     16      1.6
 9     9 LG05  OROGENIC BELT    ////////Langebaan… Cape … brown4     16      1.6
10    10 BB201 OROGENIC BELT    ////////Peninsula… Cape … brown4     16      1.6
# ℹ 2,632 more rows
# ℹ 109 more variables: Size <dbl>, SubGroup <chr>, Group <chr>, DebonPQ <chr>,
#   TASMiddlemostPlut <chr>, Villaseca <chr>, QANOR <chr>, LaRoche <chr>,
#   Geol_unit_notes <chr>, Rock_type_notes <chr>, Ref <chr>, Age <chr>,
#   Latitude <dbl>, Longitude <dbl>, SiO2 <dbl>, TiO2 <dbl>, Al2O3 <dbl>,
#   FeOt <dbl>, MnO <dbl>, MgO <dbl>, CaO <dbl>, K2O <dbl>, Na2O <dbl>,
#   P2O5 <chr>, H2O <dbl>, H2Ot <dbl>, H2O.MINUS <dbl>, LOI <chr>, Li <dbl>, …

BD %>% 
  filter(Tectonic_setting== "OROGENIC BELT" & SiO2>60) # filtrar condicionalmente

# A tibble: 1,370 × 117
     X.1 X     Tectonic_setting Location_notes     Pluton Colour Symbol Size_rel
   <int> <chr> <chr>            <chr>              <chr>  <chr>   <int>    <dbl>
 1     1 CR03  OROGENIC BELT    ////////Peninsula… Cape … brown4     16      1.6
 2     2 BB202 OROGENIC BELT    ////////Peninsula… Cape … brown4     16      1.6
 3     3 CB02  OROGENIC BELT    ////////Peninsula… Cape … brown4     16      1.6
 4     4 HB02  OROGENIC BELT    ////////Peninsula… Cape … brown4     16      1.6
 5     5 CR01  OROGENIC BELT    ////////Peninsula… Cape … brown4     16      1.6
 6     6 LL01  OROGENIC BELT    ////////Peninsula… Cape … brown4     16      1.6
 7     7 MP21  OROGENIC BELT    ////////Peninsula… Cape … brown4     16      1.6
 8     8 OK07  OROGENIC BELT    ////////Peninsula… Cape … brown4     16      1.6
 9     9 LG05  OROGENIC BELT    ////////Langebaan… Cape … brown4     16      1.6
10    10 BB201 OROGENIC BELT    ////////Peninsula… Cape … brown4     16      1.6
# ℹ 1,360 more rows
# ℹ 109 more variables: Size <dbl>, SubGroup <chr>, Group <chr>, DebonPQ <chr>,
#   TASMiddlemostPlut <chr>, Villaseca <chr>, QANOR <chr>, LaRoche <chr>,
#   Geol_unit_notes <chr>, Rock_type_notes <chr>, Ref <chr>, Age <chr>,
#   Latitude <dbl>, Longitude <dbl>, SiO2 <dbl>, TiO2 <dbl>, Al2O3 <dbl>,
#   FeOt <dbl>, MnO <dbl>, MgO <dbl>, CaO <dbl>, K2O <dbl>, Na2O <dbl>,
#   P2O5 <chr>, H2O <dbl>, H2Ot <dbl>, H2O.MINUS <dbl>, LOI <chr>, Li <dbl>, …

Criar colunas com mutate(), agrupamento com group(), arredondamento com round()

BD %>% 
  select(X,Tectonic_setting,SiO2:MgO) %>% 
  mutate(l_Si=log(SiO2),
         teste=log(SiO2)^2 + sqrt((log(Al2O3)))) #cria nova coluna com o log da coluna SiO2

# A tibble: 3,050 × 10
   X     Tectonic_setting  SiO2  TiO2 Al2O3  FeOt    MnO   MgO  l_Si teste
   <chr> <chr>            <dbl> <dbl> <dbl> <dbl>  <dbl> <dbl> <dbl> <dbl>
 1 CR03  OROGENIC BELT     65.4 0.827  17.1  4.91 0.0771 1.80   4.18  19.2
 2 BB202 OROGENIC BELT     69.6 0.709  14.9  4.19 0.0540 1.63   4.24  19.6
 3 CB02  OROGENIC BELT     70.6 0.571  15.3  2.82 0.0532 1.33   4.26  19.8
 4 HB02  OROGENIC BELT     70.6 0.478  15.7  2.51 0.0407 0.978  4.26  19.8
 5 CR01  OROGENIC BELT     70.7 0.532  15.3  2.54 0.0609 1.21   4.26  19.8
 6 LL01  OROGENIC BELT     71.0 0.484  15.5  2.47 0.0396 1.01   4.26  19.8
 7 MP21  OROGENIC BELT     72.4 0.470  14.3  2.68 0.0422 1.03   4.28  20.0
 8 OK07  OROGENIC BELT     73.2 0.428  14.4  2.40 0.0605 0.769  4.29  20.1
 9 LG05  OROGENIC BELT     73.2 0.363  14.4  2.25 0.0211 0.678  4.29  20.1
10 BB201 OROGENIC BELT     74.8 0.530  13.5  2.73 0.0472 1.18   4.31  20.2
# ℹ 3,040 more rows

BD %>% 
  select(X,Tectonic_setting,SiO2:MgO) %>% 
  mutate(across(.cols=SiO2:MgO,~log(.x))) # Operações em massa

# A tibble: 3,050 × 8
   X     Tectonic_setting  SiO2   TiO2 Al2O3  FeOt   MnO      MgO
   <chr> <chr>            <dbl>  <dbl> <dbl> <dbl> <dbl>    <dbl>
 1 CR03  OROGENIC BELT     4.18 -0.190  2.84 1.59  -2.56  0.586  
 2 BB202 OROGENIC BELT     4.24 -0.344  2.70 1.43  -2.92  0.488  
 3 CB02  OROGENIC BELT     4.26 -0.561  2.73 1.04  -2.93  0.286  
 4 HB02  OROGENIC BELT     4.26 -0.739  2.75 0.920 -3.20 -0.0223 
 5 CR01  OROGENIC BELT     4.26 -0.631  2.73 0.930 -2.80  0.188  
 6 LL01  OROGENIC BELT     4.26 -0.726  2.74 0.904 -3.23  0.00650
 7 MP21  OROGENIC BELT     4.28 -0.756  2.66 0.986 -3.16  0.0276 
 8 OK07  OROGENIC BELT     4.29 -0.848  2.67 0.877 -2.81 -0.263  
 9 LG05  OROGENIC BELT     4.29 -1.01   2.66 0.809 -3.86 -0.389  
10 BB201 OROGENIC BELT     4.31 -0.635  2.61 1.00  -3.05  0.165  
# ℹ 3,040 more rows

BD %>% 
  select(X,Tectonic_setting,SiO2:MgO) %>% 
  group_by(Tectonic_setting) %>% 
  mutate(contagem=n())

# A tibble: 3,050 × 9
# Groups:   Tectonic_setting [9]
   X     Tectonic_setting  SiO2  TiO2 Al2O3  FeOt    MnO   MgO contagem
   <chr> <chr>            <dbl> <dbl> <dbl> <dbl>  <dbl> <dbl>    <int>
 1 CR03  OROGENIC BELT     65.4 0.827  17.1  4.91 0.0771 1.80      1471
 2 BB202 OROGENIC BELT     69.6 0.709  14.9  4.19 0.0540 1.63      1471
 3 CB02  OROGENIC BELT     70.6 0.571  15.3  2.82 0.0532 1.33      1471
 4 HB02  OROGENIC BELT     70.6 0.478  15.7  2.51 0.0407 0.978     1471
 5 CR01  OROGENIC BELT     70.7 0.532  15.3  2.54 0.0609 1.21      1471
 6 LL01  OROGENIC BELT     71.0 0.484  15.5  2.47 0.0396 1.01      1471
 7 MP21  OROGENIC BELT     72.4 0.470  14.3  2.68 0.0422 1.03      1471
 8 OK07  OROGENIC BELT     73.2 0.428  14.4  2.40 0.0605 0.769     1471
 9 LG05  OROGENIC BELT     73.2 0.363  14.4  2.25 0.0211 0.678     1471
10 BB201 OROGENIC BELT     74.8 0.530  13.5  2.73 0.0472 1.18      1471
# ℹ 3,040 more rows
…
BD %>% 
  select(X,Tectonic_setting,SiO2:MgO) %>% 
  group_by(Tectonic_setting) %>%  # Agrupa os valores por grupos baseados nos tipos tectonicos, ou seja, qualquer ação será realizada em diferentes "compartimentos" de dados- isso pode ser muito util para médias globais e de grupo.
  mutate(across(SiO2:MgO,~ifelse(.x==0,mean(.x),.x)),  # substituir 0 por média por grupo (1 para cada valor de tectonic setting diferente) 
         SiO2=round(SiO2,digits=2)) #arredondar para dois digitos

# A tibble: 3,050 × 8
# Groups:   Tectonic_setting [9]
   X     Tectonic_setting  SiO2  TiO2 Al2O3  FeOt    MnO   MgO
   <chr> <chr>            <dbl> <dbl> <dbl> <dbl>  <dbl> <dbl>
 1 CR03  OROGENIC BELT     65.4 0.827  17.1  4.91 0.0771 1.80 
 2 BB202 OROGENIC BELT     69.6 0.709  14.9  4.19 0.0540 1.63 
 3 CB02  OROGENIC BELT     70.6 0.571  15.3  2.82 0.0532 1.33 
 4 HB02  OROGENIC BELT     70.6 0.478  15.7  2.51 0.0407 0.978
 5 CR01  OROGENIC BELT     70.7 0.532  15.3  2.54 0.0609 1.21 
 6 LL01  OROGENIC BELT     71.0 0.484  15.5  2.47 0.0396 1.01 
 7 MP21  OROGENIC BELT     72.4 0.470  14.3  2.68 0.0422 1.03 
 8 OK07  OROGENIC BELT     73.2 0.428  14.4  2.40 0.0605 0.769
 9 LG05  OROGENIC BELT     73.2 0.363  14.4  2.25 0.0211 0.678
10 BB201 OROGENIC BELT     74.8 0.530  13.5  2.73 0.0472 1.18 
# ℹ 3,040 more rows
…
Alterando a forma do dataframe com pivot_longer e _wider()

# Dado longo
BD %>% 
  select(X,Tectonic_setting,SiO2:MgO) %>% 
  group_by(Tectonic_setting) %>%  # Agrupa os valores por grupos baseados nos tipos tectonicos, ou seja, qualquer ação será realizada em diferentes "compartimentos" de dados- isso pode ser muito util para médias globais e de grupo.
  mutate(across(SiO2:MgO,~ifelse(.x==0, mean(.x),.x)),  # substituir 0 por média por grupo (1 para cada valor de tectonic setting diferente) 
         across(SiO2:MgO,~round(.x,digits=2))) %>% 
  reframe(n=n(),
          across(.cols=SiO2:MgO,~round(mean(.x,na.rm = TRUE),2))) %>%
  pivot_longer(cols=SiO2:MgO)

# A tibble: 54 × 4
   Tectonic_setting             n name  value
   <chr>                    <int> <chr> <dbl>
 1 ARCHAEAN CRATONS           310 SiO2  69.6 
 2 ARCHAEAN CRATONS           310 TiO2   0.31
 3 ARCHAEAN CRATONS           310 Al2O3 15.4 
 4 ARCHAEAN CRATONS           310 FeOt   2.43
 5 ARCHAEAN CRATONS           310 MnO    0.04
 6 ARCHAEAN CRATONS           310 MgO    1.33
 7 CONTINENTAL FLOOD BASALT   191 SiO2  67.5 
 8 CONTINENTAL FLOOD BASALT   191 TiO2   0.53
 9 CONTINENTAL FLOOD BASALT   191 Al2O3 14.6 
10 CONTINENTAL FLOOD BASALT   191 FeOt   4.21
# ℹ 44 more rows
…
Importação de dados de um banco em excel com readxl:

# Ilustrativo
#volc<-read_excel("volcano.xlsx") %>% 
#  as_tibble()

Opção B, baixar diretamente do github do tidytuesday:

volc <- readr::read_csv('https://raw.githubusercontent.com/rfordatascience/tidytuesday/master/data/2020/2020-05-12/volcano.csv')

select()

volc %>% select(volcano_name,-country,latitude:elevation)

# A tibble: 958 × 4
   volcano_name    latitude longitude elevation
   <chr>              <dbl>     <dbl>     <dbl>
 1 Abu                 34.5     132.        641
 2 Acamarachi         -23.3     -67.6      6023
 3 Acatenango          14.5     -90.9      3976
 4 Acigol-Nevsehir     38.5      34.6      1683
 5 Adams               46.2    -121.       3742
 6 Adatarayama         37.6     140.       1728
 7 Adwa                10.1      40.8      1733
 8 Afdera              13.1      40.9      1250
 9 Agrigan             18.8     146.        965
10 Agua                14.5     -90.7      3760
# ℹ 948 more rows

volc %>% select(!latitude:elevation)

# A tibble: 958 × 23
   volcano_number volcano_name   primary_volcano_type last_eruption_year country
            <dbl> <chr>          <chr>                <chr>              <chr>  
 1         283001 Abu            Shield(s)            -6850              Japan  
 2         355096 Acamarachi     Stratovolcano        Unknown            Chile  
 3         342080 Acatenango     Stratovolcano(es)    1972               Guatem…
 4         213004 Acigol-Nevseh… Caldera              -2080              Turkey 
 5         321040 Adams          Stratovolcano        950                United…
 6         283170 Adatarayama    Stratovolcano(es)    1996               Japan  
 7         221170 Adwa           Stratovolcano        Unknown            Ethiop…
 8         221110 Afdera         Stratovolcano        Unknown            Ethiop…
 9         284160 Agrigan        Stratovolcano        1917               United…
10         342100 Agua           Stratovolcano        Unknown            Guatem…
# ℹ 948 more rows
# ℹ 18 more variables: region <chr>, subregion <chr>, tectonic_settings <chr>,
#   evidence_category <chr>, major_rock_1 <chr>, major_rock_2 <chr>,
#   major_rock_3 <chr>, major_rock_4 <chr>, major_rock_5 <chr>,
#   minor_rock_1 <chr>, minor_rock_2 <chr>, minor_rock_3 <chr>,
#   minor_rock_4 <chr>, minor_rock_5 <chr>, population_within_5_km <dbl>,
#   population_within_10_km <dbl>, population_within_30_km <dbl>, …

volc %>% select(starts_with("population"))

# A tibble: 958 × 4
   population_within_5_km population_within_10_km population_within_30_km
                    <dbl>                   <dbl>                   <dbl>
 1                   3597                    9594                  117805
 2                      0                       7                     294
 3                   4329                   60730                 1042836
 4                 127863                  127863                  218469
 5                      0                      70                    4019
 6                    428                    3936                  717078
 7                    101                     485                   18645
 8                     51                    6042                    8611
 9                      0                       0                       0
10                   9890                  114404                 2530449
# ℹ 948 more rows
# ℹ 1 more variable: population_within_100_km <dbl>

volc %>% select(contains("within"))

# A tibble: 958 × 4
   population_within_5_km population_within_10_km population_within_30_km
                    <dbl>                   <dbl>                   <dbl>
 1                   3597                    9594                  117805
 2                      0                       7                     294
 3                   4329                   60730                 1042836
 4                 127863                  127863                  218469
 5                      0                      70                    4019
 6                    428                    3936                  717078
 7                    101                     485                   18645
 8                     51                    6042                    8611
 9                      0                       0                       0
10                   9890                  114404                 2530449
# ℹ 948 more rows
# ℹ 1 more variable: population_within_100_km <dbl>
…
volc %>% select(volcano_name,country,latitude:elevation) %>% 
         filter(!country== "Chile") %>% 
         filter(elevation>1000,
                latitude>0,
                longitude>0)

# A tibble: 252 × 5
   volcano_name     country  latitude longitude elevation
   <chr>            <chr>       <dbl>     <dbl>     <dbl>
 1 Acigol-Nevsehir  Turkey       38.5      34.6      1683
 2 Adatarayama      Japan        37.6     140.       1728
 3 Adwa             Ethiopia     10.1      40.8      1733
 4 Afdera           Ethiopia     13.1      40.9      1250
 5 Aira             Japan        31.6     131.       1117
 6 Akademia Nauk    Russia       54.0     159.       1180
 7 Akagisan         Japan        36.6     139.       1828
 8 Akan             Japan        43.4     144.       1499
 9 Akita-Komagatake Japan        39.8     141.       1637
10 Akita-Yakeyama   Japan        40.0     141.       1366
# ℹ 242 more rows

# %in% comando logico para declarar vetores para filter

volc %>% select(volcano_name,country,latitude:elevation) %>% 
         filter(!country %in%  c("Chile","Argentina","Japan"))

# A tibble: 809 × 5
   volcano_name    country       latitude longitude elevation
   <chr>           <chr>            <dbl>     <dbl>     <dbl>
 1 Acatenango      Guatemala        14.5      -90.9      3976
 2 Acigol-Nevsehir Turkey           38.5       34.6      1683
 3 Adams           United States    46.2     -121.       3742
 4 Adwa            Ethiopia         10.1       40.8      1733
 5 Afdera          Ethiopia         13.1       40.9      1250
 6 Agrigan         United States    18.8      146.        965
 7 Agua            Guatemala        14.5      -90.7      3760
 8 Agua de Pau     Portugal         37.8      -25.5       947
 9 Agung           Indonesia        -8.34     116.       2997
10 Ahyi            United States    20.4      145.        -75
# ℹ 799 more rows

# | ou

# & e

volc %>% 
  select(volcano_name, country, latitude:elevation) %>% 
  filter(country == "Antarctica" | latitude < 10)

# A tibble: 382 × 5
   volcano_name country          latitude longitude elevation
   <chr>        <chr>               <dbl>     <dbl>     <dbl>
 1 Acamarachi   Chile              -23.3      -67.6      6023
 2 Aguilera     Chile              -50.3      -73.8      2546
 3 Agung        Indonesia           -8.34     116.       2997
 4 Alcedo       Ecuador             -0.43     -91.1      1130
 5 Aliso        Ecuador             -0.53     -78        4267
 6 Alutu        Ethiopia             7.77      38.8      2335
 7 Amasing      Indonesia           -0.53     127.       1030
 8 Ambae        Vanuatu            -15.4      168.       1496
 9 Ambang       Indonesia            0.75     124.       1795
10 Ambitle      Papua New Guinea    -4.08     154.        450
# ℹ 372 more rows
…
